<svg xmlns="http://www.w3.org/2000/svg" width="109.327" height="109.441" viewBox="0 0 109.327 109.441">
  <defs>
    <style>
      .cls-1 {
        fill: #ffd15c;
      }

      .cls-2 {
        fill: #f8b64c;
      }

      .cls-3 {
        fill: #40596b;
      }

      .cls-4 {
        fill: #f2f2f2;
      }

      .cls-5 {
        fill: #cdd6e0;
      }
    </style>
  </defs>
  <g id="email" transform="translate(0 0)">
    <path id="Path_1001" data-name="Path 1001" class="cls-1" d="M109.589,241.756a4.635,4.635,0,0,1-1.367,3.416,4.937,4.937,0,0,1-3.189,1.139H4.816a5.444,5.444,0,0,1-3.189-1.139,4.635,4.635,0,0,1-1.367-3.416V175.02H109.589v66.736Z" transform="translate(-0.261 -136.869)"/>
    <path id="Path_1002" data-name="Path 1002" class="cls-2" d="M113.125,332.606a4.937,4.937,0,0,1-3.189,1.139H9.719a5.444,5.444,0,0,1-3.189-1.139l53.3-45.781Z" transform="translate(-5.163 -224.303)"/>
    <path id="Path_1003" data-name="Path 1003" class="cls-3" d="M109.589,38.151,94.1,49.311,57.886,75.277a5.125,5.125,0,0,1-6.15,0L15.749,49.311.261,38.151,15.749,26.99,49.458,2.847l2.505-1.822a5.125,5.125,0,0,1,6.15,0l2.505,1.822L76.79,14.463l7.972,5.694L94.1,26.99Z" transform="translate(-0.261 0)"/>
    <path id="Path_1004" data-name="Path 1004" class="cls-4" d="M149.665,27.183V59.525L113.451,85.491a5.125,5.125,0,0,1-6.15,0L71.314,59.525V17.616a4.569,4.569,0,0,1,4.555-4.555h59.447Z" transform="translate(-55.837 -10.214)"/>
    <path id="Path_1005" data-name="Path 1005" class="cls-5" d="M365.974,23.538a3.6,3.6,0,0,0,3.644,3.644H380.1L365.974,13.061V23.538Z" transform="translate(-286.256 -10.214)"/>
  </g>
</svg>
