<svg xmlns="http://www.w3.org/2000/svg" width="164" height="73" viewBox="0 0 164 73">
  <defs>
    <style>
      .cls-1, .cls-3 {
        fill: none;
      }

      .cls-1 {
        stroke: #22ae51;
        stroke-width: 0.5px;
      }

      .cls-2 {
        stroke: none;
      }
    </style>
  </defs>
  <g id="agribank-logo-vector-91025" class="cls-1">
    <rect class="cls-2" width="164" height="73" rx="3"/>
    <rect class="cls-3" x="0.25" y="0.25" width="163.5" height="72.5" rx="2.75"/>
  </g>
</svg>
