<svg id="icon_food" data-name="icon/food" xmlns="http://www.w3.org/2000/svg" width="16" height="16" viewBox="0 0 16 16">
  <defs>
    <style>
      .cls-1 {
        fill: rgba(0,0,0,0);
      }

      .cls-2 {
        fill: #fff;
      }
    </style>
  </defs>
  <rect id="icon_food_background" data-name="icon/food background" class="cls-1" width="16" height="16"/>
  <path id="Combined_Shape" data-name="Combined Shape" class="cls-2" d="M16,16H0V14.094H16V16ZM4.719,13.157H.937V2.844H3.96L4.488,3.9A2.33,2.33,0,0,0,2.844,6.125v.469H4.719v.937h.937V6.594H7.531V6.125A2.344,2.344,0,0,0,5.492,3.812L4.54,1.906H.937V0H9.406V13.155H5.656V11.281H4.719v1.875Zm1.875-2.813v1.875h.937V10.344Zm-3.75,0v1.875h.937V10.344ZM4.719,8.469v1.875h.937V8.469Zm1.875-.938V9.406h.937V7.531Zm-3.75,0V9.406h.937V7.531Zm12.218,5.625H10.344V0h4.718V13.155ZM11.281,6.594V8.469h.938V6.594ZM6.513,5.656H3.862a1.406,1.406,0,0,1,2.651,0Z" transform="translate(0 0)"/>
</svg>
