<svg xmlns="http://www.w3.org/2000/svg" width="16" height="15.999" viewBox="0 0 16 15.999">
    <defs>
        <style>
            .cls-1{fill:#3a6d4b}
        </style>
    </defs>
    <path id="Subtraction_1" d="M6300 4305.5a8 8 0 1 1 8-8 8.008 8.008 0 0 1-8 8zm-4-9v2h8v-2z" class="cls-1" data-name="Subtraction 1" transform="translate(-6292 -4289.501)"/>
</svg>
