<svg id="ic24_location_1" data-name="ic24/location/1" xmlns="http://www.w3.org/2000/svg" width="14" height="14" viewBox="0 0 14 14">
  <defs>
    <style>
      .cls-1 {
        fill: rgba(0,0,0,0);
      }

      .cls-2 {
        fill: #fff;
      }
    </style>
  </defs>
  <rect id="ic24_location_1_background" data-name="ic24/location/1 background" class="cls-1" width="14" height="14" transform="translate(0 0)"/>
  <g id="ic24_location_1-2" data-name="ic24/location/1" transform="translate(0 0)">
    <rect id="ic24_location_1_background-2" data-name="ic24/location/1 background" class="cls-1" width="14" height="14" transform="translate(0 0)"/>
    <g id="location" transform="translate(1.167)">
      <path id="Shape" class="cls-2" d="M5.833,14h0l-.014-.01a19.08,19.08,0,0,1-3.061-2.63C.919,9.389-.009,7.45,0,5.6A5.725,5.725,0,0,1,5.833,0a5.727,5.727,0,0,1,5.833,5.6,6.661,6.661,0,0,1-.9,3.214A13,13,0,0,1,8.758,11.49,19.6,19.6,0,0,1,5.834,14Zm0-11.083A2.917,2.917,0,1,0,8.75,5.833,2.92,2.92,0,0,0,5.833,2.917Z" transform="translate(0)"/>
    </g>
  </g>
</svg>
