<svg xmlns="http://www.w3.org/2000/svg" width="36" height="36" viewBox="0 0 36 36">
  <defs>
    <style>
      .cls-1 {
        fill: #fff;
      }

      .cls-2 {
        fill: none;
        stroke: #3a6d4b;
        stroke-linecap: round;
        stroke-linejoin: round;
        stroke-miterlimit: 10;
        stroke-width: 2px;
      }
    </style>
  </defs>
  <g id="ic24_left" data-name="ic24/left" transform="translate(36) rotate(180)">
    <g id="arrow-right">
      <circle id="Oval" class="cls-1" cx="18" cy="18" r="18" transform="translate(36) rotate(180)"/>
      <path id="Shape" class="cls-2" d="M0,0-8,8l8,8" transform="translate(14 -10) rotate(180)"/>
    </g>
  </g>
</svg>
